…
#### Depth at mismatch positions

    # A tibble: 126 x 7
       subject   kgp_id  locus  call   allele                  POS DEPTH
       <chr>     <chr>   <chr>  <chr>  <chr>                 <int> <int>
     1 ERR188130 HG00261 DQB1_1 called IMGT_DQB1*05:03:01:03    12    96
     2 ERR188130 HG00261 DQB1_1 called IMGT_DQB1*05:03:01:03    16   106
     3 ERR188130 HG00261 DQB1_1 called IMGT_DQB1*05:03:01:03    35   320
     4 ERR188130 HG00261 DQB1_1 called IMGT_DQB1*05:03:01:03    44   372
     5 ERR188130 HG00261 DQB1_1 called IMGT_DQB1*05:03:01:03    54   442
     6 ERR188130 HG00261 DQB1_1 called IMGT_DQB1*05:03:01:03    67   529
     7 ERR188130 HG00261 DQB1_1 called IMGT_DQB1*05:03:01:03    72   558
     8 ERR188130 HG00261 DQB1_1 called IMGT_DQB1*05:03:01:03    79   599
     9 ERR188130 HG00261 DQB1_1 called IMGT_DQB1*05:03:01:03    82   595
    10 ERR188130 HG00261 DQB1_1 called IMGT_DQB1*05:03:01:03    85   588
    # ... with 116 more rows
…
#### Depth at mismatch positions

    # A tibble: 64 x 7
       subject   kgp_id  locus call   allele            POS DEPTH
       <chr>     <chr>   <chr> <chr>  <chr>           <int> <int>
     1 ERR188142 NA12287 B_2   called IMGT_B*51:01:01    41   228
     2 ERR188142 NA12287 B_2   called IMGT_B*51:01:01    45   256
     3 ERR188142 NA12287 B_2   called IMGT_B*51:01:01    48   266
     4 ERR188142 NA12287 B_2   called IMGT_B*51:01:01    49   278
     5 ERR188142 NA12287 B_2   called IMGT_B*51:01:01   141   475
     6 ERR188142 NA12287 B_2   called IMGT_B*51:01:01   206   586
     7 ERR188142 NA12287 B_2   called IMGT_B*51:01:01   209   599
     8 ERR188142 NA12287 B_2   called IMGT_B*51:01:01   259  1036
     9 ERR188142 NA12287 B_2   called IMGT_B*51:01:01   261  1058
    10 ERR188142 NA12287 B_2   called IMGT_B*51:01:01   272  1179
    # ... with 54 more rows
…
#### Depth at mismatch positions

    # A tibble: 102 x 7
       subject   kgp_id  locus call   allele            POS DEPTH
       <chr>     <chr>   <chr> <chr>  <chr>           <int> <int>
     1 ERR188235 NA11930 A_1   called IMGT_A*24:02:01    48    33
     2 ERR188235 NA11930 A_1   called IMGT_A*24:02:01    72    36
     3 ERR188235 NA11930 A_1   called IMGT_A*24:02:01    78    37
     4 ERR188235 NA11930 A_1   called IMGT_A*24:02:01    98    26
     5 ERR188235 NA11930 A_1   called IMGT_A*24:02:01   144     5
     6 ERR188235 NA11930 A_1   called IMGT_A*24:02:01   240   192
     7 ERR188235 NA11930 A_1   called IMGT_A*24:02:01   257   444
     8 ERR188235 NA11930 A_1   called IMGT_A*24:02:01   265   532
     9 ERR188235 NA11930 A_1   called IMGT_A*24:02:01   292   674
    10 ERR188235 NA11930 A_1   called IMGT_A*24:02:01   299   735
    # ... with 92 more rows
…
#### Depth at mismatch positions

    # A tibble: 86 x 7
       subject   kgp_id  locus call   allele            POS DEPTH
       <chr>     <chr>   <chr> <chr>  <chr>           <int> <int>
     1 ERR188276 NA20758 A_2   called IMGT_A*01:01:01    28   280
     2 ERR188276 NA20758 A_2   called IMGT_A*01:01:01    72   515
     3 ERR188276 NA20758 A_2   called IMGT_A*01:01:01    98   335
     4 ERR188276 NA20758 A_2   called IMGT_A*01:01:01   203   551
     5 ERR188276 NA20758 A_2   called IMGT_A*01:01:01   256  1345
     6 ERR188276 NA20758 A_2   called IMGT_A*01:01:01   265  1616
     7 ERR188276 NA20758 A_2   called IMGT_A*01:01:01   270  1612
     8 ERR188276 NA20758 A_2   called IMGT_A*01:01:01   271  1621
     9 ERR188276 NA20758 A_2   called IMGT_A*01:01:01   299  1634
    10 ERR188276 NA20758 A_2   called IMGT_A*01:01:01   307  1820
    # ... with 76 more rows
…
#### Depth at mismatch positions

    # A tibble: 26 x 7
       subject   kgp_id  locus call   allele            POS DEPTH
       <chr>     <chr>   <chr> <chr>  <chr>           <int> <int>
     1 ERR188314 HG00380 B_1   called IMGT_B*42:01:01   412   197
     2 ERR188314 HG00380 B_1   called IMGT_B*42:01:01   477   161
     3 ERR188314 HG00380 B_1   called IMGT_B*42:01:01   486   163
     4 ERR188314 HG00380 B_1   called IMGT_B*42:01:01   527   334
     5 ERR188314 HG00380 B_1   called IMGT_B*42:01:01   538   803
     6 ERR188314 HG00380 B_1   called IMGT_B*42:01:01   539   828
     7 ERR188314 HG00380 B_1   called IMGT_B*42:01:01   540   872
     8 ERR188314 HG00380 B_1   called IMGT_B*42:01:01   559  1255
     9 ERR188314 HG00380 B_1   called IMGT_B*42:01:01   560  1290
    10 ERR188314 HG00380 B_1   called IMGT_B*42:01:01   605  2557
    # ... with 16 more rows
…
#### Depth at mismatch positions

    # A tibble: 106 x 7
       subject   kgp_id  locus call   allele            POS DEPTH
       <chr>     <chr>   <chr> <chr>  <chr>           <int> <int>
     1 ERR188328 HG00109 A_1   called IMGT_A*02:05:01    28   149
     2 ERR188328 HG00109 A_1   called IMGT_A*02:05:01    48   242
     3 ERR188328 HG00109 A_1   called IMGT_A*02:05:01    78   275
     4 ERR188328 HG00109 A_1   called IMGT_A*02:05:01    98   167
     5 ERR188328 HG00109 A_1   called IMGT_A*02:05:01   102   151
     6 ERR188328 HG00109 A_1   called IMGT_A*02:05:01   144    22
     7 ERR188328 HG00109 A_1   called IMGT_A*02:05:01   200    69
     8 ERR188328 HG00109 A_1   called IMGT_A*02:05:01   203    81
     9 ERR188328 HG00109 A_1   called IMGT_A*02:05:01   240   453
    10 ERR188328 HG00109 A_1   called IMGT_A*02:05:01   256   760
    # ... with 96 more rows
…
#### Depth at mismatch positions

    # A tibble: 98 x 7
       subject   kgp_id  locus call   allele            POS DEPTH
       <chr>     <chr>   <chr> <chr>  <chr>           <int> <int>
     1 ERR188374 HG00360 A_2   called IMGT_A*02:01:01    48   126
     2 ERR188374 HG00360 A_2   called IMGT_A*02:01:01    72   145
     3 ERR188374 HG00360 A_2   called IMGT_A*02:01:01    78   143
     4 ERR188374 HG00360 A_2   called IMGT_A*02:01:01    98    89
     5 ERR188374 HG00360 A_2   called IMGT_A*02:01:01   144    30
     6 ERR188374 HG00360 A_2   called IMGT_A*02:01:01   240   329
     7 ERR188374 HG00360 A_2   called IMGT_A*02:01:01   257   603
     8 ERR188374 HG00360 A_2   called IMGT_A*02:01:01   265   799
     9 ERR188374 HG00360 A_2   called IMGT_A*02:01:01   292   949
    10 ERR188374 HG00360 A_2   called IMGT_A*02:01:01   299   962
    # ... with 88 more rows
…
#### Depth at mismatch positions

    # A tibble: 142 x 7
       subject   kgp_id  locus call   allele            POS DEPTH
       <chr>     <chr>   <chr> <chr>  <chr>           <int> <int>
     1 ERR188415 NA12058 B_1   called IMGT_B*35:03:01    15   296
     2 ERR188415 NA12058 B_1   called IMGT_B*35:03:01    41   528
     3 ERR188415 NA12058 B_1   called IMGT_B*35:03:01    44   559
     4 ERR188415 NA12058 B_1   called IMGT_B*35:03:01    48   586
     5 ERR188415 NA12058 B_1   called IMGT_B*35:03:01    49   595
     6 ERR188415 NA12058 B_1   called IMGT_B*35:03:01    72   813
     7 ERR188415 NA12058 B_1   called IMGT_B*35:03:01    97   624
     8 ERR188415 NA12058 B_1   called IMGT_B*35:03:01   142   956
     9 ERR188415 NA12058 B_1   called IMGT_B*35:03:01   144   980
    10 ERR188415 NA12058 B_1   called IMGT_B*35:03:01   165  1155
    # ... with 132 more rows
…
#### Depth at mismatch positions

    # A tibble: 28 x 7
       subject   kgp_id  locus call    allele            POS DEPTH
       <chr>     <chr>   <chr> <chr>   <chr>           <int> <int>
     1 ERR188416 HG00102 A_1   called  IMGT_A*01:01:37   105     1
     2 ERR188416 HG00102 A_1   goldStd IMGT_A*01:01:01   105    15
     3 ERR188416 HG00102 A_2   called  IMGT_A*01:09:01   171     1
     4 ERR188416 HG00102 A_2   goldStd IMGT_A*01:01:01   171     1
     5 ERR188416 HG00102 B_1   called  IMGT_B*07:08:01   272   884
     6 ERR188416 HG00102 B_1   called  IMGT_B*07:08:01   277   949
     7 ERR188416 HG00102 B_1   called  IMGT_B*07:08:01   280   958
     8 ERR188416 HG00102 B_1   called  IMGT_B*07:08:01   282   958
     9 ERR188416 HG00102 B_1   called  IMGT_B*07:08:01   283   961
    10 ERR188416 HG00102 B_1   goldStd IMGT_B*07:02:01   272   274
    # ... with 18 more rows
…
#### Depth at mismatch positions

    # A tibble: 88 x 7
       subject   kgp_id  locus call    allele            POS DEPTH
       <chr>     <chr>   <chr> <chr>   <chr>           <int> <int>
     1 ERR188417 HG00327 C_1   called  IMGT_C*05:29:01   176     0
     2 ERR188417 HG00327 C_1   goldStd IMGT_C*05:01:01   176     1
     3 ERR188417 HG00327 C_2   called  IMGT_C*05:29:01    22    24
     4 ERR188417 HG00327 C_2   called  IMGT_C*05:29:01    28    29
     5 ERR188417 HG00327 C_2   called  IMGT_C*05:29:01    47    44
     6 ERR188417 HG00327 C_2   called  IMGT_C*05:29:01    97    35
     7 ERR188417 HG00327 C_2   called  IMGT_C*05:29:01   142     4
     8 ERR188417 HG00327 C_2   called  IMGT_C*05:29:01   201     4
     9 ERR188417 HG00327 C_2   called  IMGT_C*05:29:01   270   506
    10 ERR188417 HG00327 C_2   called  IMGT_C*05:29:01   289   591
    # ... with 78 more rows
…
